Division,WeightClassKg,Place,Name,Team,BodyweightKg,Best3SquatKg,Best3BenchKg,Best3DeadliftKg,TotalKg,Equipment,Event,Sex,BirthDate
Girls,44.23,1,Karelen Bastida,Skidmore-Tynan,43.82,102.06,56.7,90.72,249.48,Unlimited,SBD,F,
Girls,44.23,2,Jada Rodriguez,Mathis,43.36,92.99,45.36,90.72,229.06,Unlimited,SBD,F,
Girls,44.23,3,Julie Longoria,Mathis,43.18,63.5,36.29,83.91,183.7,Unlimited,SBD,F,
Girls,44.23,4,Yazmin Martinez,Laredo Nixon,41.37,45.36,20.41,63.5,129.27,Unlimited,SBD,F,
Girls,47.85,1,Paula Gonzales,Skidmore-Tynan,47.08,106.59,58.97,117.93,283.5,Unlimited,SBD,F,
Girls,47.85,2,Samantha Quilimaco,Mathis,47.81,90.72,52.16,108.86,251.74,Unlimited,SBD,F,
Girls,47.85,3,Eliana Gonzales,Mathis,46.18,81.65,38.56,95.25,215.46,Unlimited,SBD,F,
Girls,47.85,DQ,Jazlynn Gonzales,Skidmore-Tynan,45.9,,,,,Unlimited,SBD,F,
Girls,51.94,1,Keiandra Ross,Mathis,51.8,120.2,43.09,131.54,294.84,Unlimited,SBD,F,
Girls,51.94,2,Kendall Romero,Mathis,50.98,97.52,54.43,113.4,265.35,Unlimited,SBD,F,
Girls,51.94,3,Meredith Santos,Laredo Alexander,51.26,68.04,29.48,68.04,165.56,Unlimited,SBD,F,
Girls,51.94,4,Sofia Gaona,Laredo Alexander,50.89,56.7,20.41,65.77,142.88,Unlimited,SBD,F,
Girls,51.94,DQ,Mariah Boyd,Charlotte,49.62,,,,,Unlimited,SBD,F,
Girls,56.02,1,Somaira Vega,Mathis,55.79,154.22,83.91,138.35,376.48,Unlimited,SBD,F,
Girls,56.02,2,Marivel Martinez,Mathis,55.97,111.13,61.23,108.86,281.23,Unlimited,SBD,F,
Girls,56.02,3,Norma Martinez,Charlotte,55.88,102.06,38.56,117.93,258.55,Unlimited,SBD,F,
Girls,56.02,4,Anika Ornelas,Banquete,52.39,70.31,45.36,104.33,219.99,Unlimited,SBD,F,
Girls,56.02,5,Katie Gonzalez,Laredo Alexander,55.25,90.72,34.02,90.72,215.46,Unlimited,SBD,F,
Girls,56.02,6,Natalie Garcia,Charlotte,55.07,79.38,24.95,90.72,195.04,Unlimited,SBD,F,
Girls,56.02,DQ,Autumn Gonzales,Charlotte,55.34,,,,,Unlimited,SBD,F,
Girls,60.1,1,Kaila Sanchez,Mathis,59.96,161.03,77.11,147.42,385.55,Unlimited,SBD,F,
Girls,60.1,2,Alexa Munoz,George West,58.51,117.93,54.43,117.93,290.3,Unlimited,SBD,F,
Girls,60.1,3,Abigail Herrera,Laredo Alexander,59.51,111.13,47.63,104.33,263.08,Unlimited,SBD,F,
Girls,60.1,DQ,Alexzis Anglin,George West,59.06,,,,,Unlimited,SBD,F,
Girls,67.36,1,Trinity Martinez,Banquete,66.59,142.88,74.84,131.54,349.27,Unlimited,SBD,F,
Girls,67.36,2,Mia Mendiola,Banquete,67.31,111.13,68.04,104.33,283.5,Unlimited,SBD,F,
Girls,67.36,3,Hayden Cameron,Banquete,64.68,97.52,68.04,102.06,267.62,Unlimited,SBD,F,
Girls,75.07,1,Isabella Gonzales,Mathis,73.94,179.17,102.06,172.37,453.59,Unlimited,SBD,F,
Girls,75.07,2,Ysabelle Westbrook,Mathis,74.3,145.15,79.38,154.22,378.75,Unlimited,SBD,F,
Girls,75.07,3,Audrey Velasquez,Three Rivers,72.57,131.54,63.5,131.54,326.59,Unlimited,SBD,F,
Girls,75.07,4,Marissa De Leon,George West,72.94,122.47,77.11,120.2,319.78,Unlimited,SBD,F,
Girls,75.07,5,Aylin Musquiz,Laredo Alexander,69.31,111.13,65.77,127.01,303.91,Unlimited,SBD,F,
Girls,75.07,6,Camila Villasenor,Laredo Alexander,69.76,120.2,56.7,124.74,301.64,Unlimited,SBD,F,
Girls,75.07,7,Chantell Nieto,George West,72.48,106.59,63.5,124.74,294.84,Unlimited,SBD,F,
Girls,75.07,8,Destiny Rosas,Banquete,70.31,90.72,63.5,111.13,265.35,Unlimited,SBD,F,
Girls,75.07,9,Eyra Encalada,Laredo Alexander,69.31,102.06,45.36,115.67,263.08,Unlimited,SBD,F,
Girls,75.07,10,Mariana Gonzalez,Laredo Alexander,68.95,95.25,40.82,111.13,247.21,Unlimited,SBD,F,
Girls,75.07,11,Kate Esqueda,Laredo Alexander,74.84,90.72,36.29,97.52,224.53,Unlimited,SBD,F,
Girls,75.07,DQ,Jayda Gutierrez,Laredo Alexander,74.3,86.18,34.02,,,Unlimited,SBD,F,
Girls,82.33,1,Maria Cantu,Skidmore-Tynan,80.47,151.95,95.25,149.69,396.89,Unlimited,SBD,F,
Girls,82.33,2,Allison Rosalez-Garces,Mathis,80.83,156.49,68.04,140.61,365.14,Unlimited,SBD,F,
Girls,82.33,3,Jessica Mendez,Banquete,82.28,115.67,54.43,108.86,278.96,Unlimited,SBD,F,
Girls,82.33,4,Josalynn Benavidez,Three Rivers,75.93,99.79,52.16,95.25,247.21,Unlimited,SBD,F,
Girls,82.33,5,Sadie Madrigal,Laredo Alexander,77.38,56.7,29.48,79.38,165.56,Unlimited,SBD,F,
Girls,82.33,DQ,Jasmine Perez,Three Rivers,80.2,,,,,Unlimited,SBD,F,
Girls,90.04,1,Reina Romero,Mathis,88.09,188.24,102.06,176.9,467.2,Unlimited,SBD,F,
Girls,90.04,2,Angel Carranza,Mathis,89.99,158.76,86.18,140.61,385.55,Unlimited,SBD,F,
Girls,90.04,3,Brittany Lugo,Laredo Nixon,87,156.49,61.23,161.03,378.75,Unlimited,SBD,F,
Girls,90.04,4,Chanelle Nieto,George West,85.73,147.42,68.04,145.15,360.61,Unlimited,SBD,F,
Girls,90.04,5,Fendie Santos,Laredo Alexander,85.46,77.11,36.29,83.91,197.31,Unlimited,SBD,F,
Girls,100.02,1,Caitlin Lara,Mathis,90.26,170.1,102.06,133.81,405.97,Unlimited,SBD,F,
Girls,100.02,2,Yadhira Eguia,Mathis,98.88,165.56,81.65,133.81,381.02,Unlimited,SBD,F,
Girls,100.02,3,Jocelyn Turruibiatres,Laredo Nixon,91.26,136.08,38.56,102.06,276.69,Unlimited,SBD,F,
Girls,100.02,4,Angelina Delgado,Skidmore-Tynan,90.36,61.23,47.63,81.65,190.51,Unlimited,SBD,F,
Girls,117.71,1,Isabel Luna,Skidmore-Tynan,100.97,113.4,72.57,136.08,322.05,Unlimited,SBD,F,
Girls,117.71,2,Balderas Jarethzy,Laredo Nixon,101.06,90.72,45.36,102.06,238.14,Unlimited,SBD,F,
Girls,117.71+,1,Danica Garcia,Banquete,127.91,145.15,79.38,115.67,340.19,Unlimited,SBD,F,
Girls,117.71+,2,Maya Porter,Banquete,121.02,97.52,61.23,124.74,283.5,Unlimited,SBD,F,
Girls,117.71+,3,Jasmer Palacios,Banquete,123.2,90.72,38.56,117.93,247.21,Unlimited,SBD,F,
