Division,WeightClassKg,Place,Name,Team,BodyweightKg,Best3SquatKg,Best3BenchKg,Best3DeadliftKg,TotalKg,Equipment,Event,Sex,BirthDate
Girls,44.23,1,Amerikis Orta,Victoria West,43.36,79.38,54.43,86.18,219.99,Unlimited,SBD,F,
Girls,44.23,2,Allie Arlitt,Victoria West,42.09,70.31,38.56,70.31,179.17,Unlimited,SBD,F,
Girls,44.23,3,Julie Longoria,Mathis,42.91,58.97,34.02,81.65,174.63,Unlimited,SBD,F,
Girls,44.23,4,Lianna Longoria,Falfurrias,41.19,61.23,34.02,65.77,161.03,Unlimited,SBD,F,
Girls,44.23,NS,Jada Rodriguez,Mathis,,83.91,,,,Unlimited,SBD,F,
Girls,44.23,NS,Chrisiana Turcios,Corpus Christi Tuloso-Midway,,65.77,,,,Unlimited,SBD,F,
Girls,47.85,1,Alyssa Rios,Corpus Christi West Oso,47.45,115.67,65.77,138.35,319.78,Unlimited,SBD,F,
Girls,47.85,2,Samantha Quilimaco,Mathis,47.26,99.79,47.63,104.33,251.74,Unlimited,SBD,F,
Girls,47.85,3,Faith Sanchez,Victoria East,47.26,86.18,47.63,95.25,229.06,Unlimited,SBD,F,
Girls,47.85,4,Eliana Gonzales,Mathis,47.45,81.65,34.02,95.25,210.92,Unlimited,SBD,F,
Girls,47.85,DQ,Kiandra Ross,Mathis,47.4,115.67,,,,Unlimited,SBD,F,
Girls,47.85,DQ,Precious Carter,Corpus Christi West Oso,46.54,65.77,,,,Unlimited,SBD,F,
Girls,47.85,NS,Kiara Salazar,Victoria West,,77.11,,,,Unlimited,SBD,F,
Girls,51.94,1,Natalia Salazar,Corpus Christi West Oso,48.99,111.13,70.31,106.59,288.03,Unlimited,SBD,F,
Girls,51.94,2,Kiana Price,Victoria West,51.94,106.59,56.7,83.91,247.21,Unlimited,SBD,F,
Girls,51.94,3,Kendall Romero,Mathis,51.26,92.99,49.9,99.79,242.67,Unlimited,SBD,F,
Girls,51.94,4,Kaiyo Torres,Corpus Christi Tuloso-Midway,50.89,79.38,34.02,68.04,181.44,Unlimited,SBD,F,
Girls,51.94,5,Raquelle Rodriguez,Victoria East,50.89,68.04,24.95,86.18,179.17,Unlimited,SBD,F,
Girls,51.94,NS,Areli Samano,Victoria West,,92.99,,,,Unlimited,SBD,F,
Girls,51.94,DQ,Julissa Tadeschi,Corpus Christi West Oso,51.26,,,,,Unlimited,SBD,F,
Girls,56.02,1,Somaira Vega,Mathis,55.61,142.88,79.38,136.08,358.34,Unlimited,SBD,F,
Girls,56.02,2,Lindalee Urquieta,Corpus Christi Tuloso-Midway,52.62,142.88,83.91,129.27,356.07,Unlimited,SBD,F,
Girls,56.02,3,Jordan De La Garza,Victoria West,55.43,145.15,74.84,115.67,335.66,Unlimited,SBD,F,
Girls,56.02,4,Natalie Delossantos,Victoria East,55.52,117.93,54.43,113.4,285.76,Unlimited,SBD,F,
Girls,56.02,5,Marivel Martinez,Mathis,55.61,113.4,56.7,104.33,274.42,Unlimited,SBD,F,
Girls,56.02,6,Bella Davis,Corpus Christi West Oso,56.02,106.59,54.43,97.52,258.55,Unlimited,SBD,F,
Girls,56.02,7,Lauren Sanchez,Falfurrias,53.07,49.9,34.02,83.91,167.83,Unlimited,SBD,F,
Girls,56.02,NS,Katelynn Ramos,Corpus Christi West Oso,,,,,,Unlimited,SBD,F,
Girls,56.02,NS,Niya James,Corpus Christi West Oso,,,,,,Unlimited,SBD,F,
Girls,60.1,1,Zariah Dean,Victoria West,58.42,142.88,83.91,147.42,374.21,Unlimited,SBD,F,
Girls,60.1,2,Kaila Sanchez,Mathis,59.96,140.61,74.84,142.88,358.34,Unlimited,SBD,F,
Girls,60.1,3,Yaneiris Maldonado,Victoria East,59.15,117.93,61.23,127.01,306.17,Unlimited,SBD,F,
Girls,60.1,4,Avril Quiroz,Odem,60.06,95.25,61.23,99.79,256.28,Unlimited,SBD,F,
Girls,60.1,5,Alyssa Spurlock,Odem,58.97,83.91,38.56,72.57,195.04,Unlimited,SBD,F,
Girls,60.1,NS,Illiana Aries,Corpus Christi Tuloso-Midway,,83.91,,,,Unlimited,SBD,F,
Girls,60.1,NS,Allyana Rodriguez,Ben Bolt-Palito Blanco,,,,,,Unlimited,SBD,F,
Girls,67.36,1,Ava Adams,Ben Bolt-Palito Blanco,65.77,113.4,56.7,124.74,294.84,Unlimited,SBD,F,
Girls,67.36,2,Ava Soliz,Goliad,62.41,111.13,56.7,97.52,265.35,Unlimited,SBD,F,
Girls,67.36,3,Monica Kazanjian,Falfurrias,64.32,83.91,38.56,117.93,240.4,Unlimited,SBD,F,
Girls,67.36,4,Lana Aguilar,Victoria East,63.32,90.72,47.63,88.45,226.8,Unlimited,SBD,F,
Girls,67.36,5,Emma Munoz,Premont,64.77,81.65,43.09,95.25,219.99,Unlimited,SBD,F,
Girls,67.36,DQ,Celeste Arizpe,Ben Bolt-Palito Blanco,67.13,97.52,40.82,,,Unlimited,SBD,F,
Girls,67.36,NS,Celeste Godinez,Corpus Christi Tuloso-Midway,,,,,,Unlimited,SBD,F,
Girls,75.07,1,Alexus Valdez,Corpus Christi Tuloso-Midway,73.3,174.63,106.59,174.63,455.86,Unlimited,SBD,F,
Girls,75.07,2,Isabella Gonzales,Mathis,74.48,161.03,83.91,163.29,408.23,Unlimited,SBD,F,
Girls,75.07,3,Greenly Martinez,Victoria West,69.4,147.42,90.72,145.15,383.29,Unlimited,SBD,F,
Girls,75.07,4,Adalee Salinas,Falfurrias,73.12,151.95,68.04,149.69,369.68,Unlimited,SBD,F,
Girls,75.07,5,Ysabelle Westbrook,Mathis,74.39,149.69,72.57,145.15,367.41,Unlimited,SBD,F,
Girls,75.07,6,Breanna Palmer,Ben Bolt-Palito Blanco,71.67,142.88,72.57,129.27,344.73,Unlimited,SBD,F,
Girls,75.07,7,Julietta Esqueda,Odem,69.94,120.2,70.31,133.81,324.32,Unlimited,SBD,F,
Girls,75.07,8,Nadia Antonio,Victoria West,71.21,102.06,65.77,113.4,281.23,Unlimited,SBD,F,
Girls,75.07,9,Vanessa Sauceda,Odem,71.12,95.25,56.7,108.86,260.82,Unlimited,SBD,F,
Girls,75.07,10,Nevaeh Garcia,Falfurrias,71.58,102.06,45.36,108.86,256.28,Unlimited,SBD,F,
Girls,75.07,11,Madison Garcia,Corpus Christi Tuloso-Midway,75.07,108.86,56.7,88.45,254.01,Unlimited,SBD,F,
Girls,75.07,12,Alexis Rangel #2,Victoria West,72.57,92.99,56.7,95.25,244.94,Unlimited,SBD,F,
Girls,75.07,13,Janessa Sygaco,Odem,73.3,90.72,47.63,70.31,208.65,Unlimited,SBD,F,
Girls,75.07,DQ,Dayna Davila,Premont,71.94,129.27,63.5,,,Unlimited,SBD,F,
Girls,75.07,DQ,Andrea Cantu,Premont,69.85,120.2,,,,Unlimited,SBD,F,
Girls,75.07,NS,Zandra Martinez,Victoria East,,,,,,Unlimited,SBD,F,
Girls,82.33,1,Jocelyn Gainer,Victoria West,75.93,124.74,79.38,124.74,328.85,Unlimited,SBD,F,
Girls,82.33,2,Jesielah McGilbra,Goliad,79.65,124.74,83.91,117.93,326.59,Unlimited,SBD,F,
Girls,82.33,3,Reanna Garcia,Corpus Christi West Oso,77.2,95.25,54.43,111.13,260.82,Unlimited,SBD,F,
Girls,82.33,4,Dezirae Coleman,Corpus Christi West Oso,78.2,61.23,34.02,77.11,172.37,Unlimited,SBD,F,
Girls,82.33,NS,Madilyn Cantu,Corpus Christi Tuloso-Midway,,,,,,Unlimited,SBD,F,
Girls,82.33,NS,Tatum Davila,Victoria East,,113.4,61.23,,,Unlimited,SBD,F,
Girls,82.33,NS,Anaiad Olvera,Odem,,161.03,,,,Unlimited,SBD,F,
Girls,82.33,NS,Marcella Hoshe,Pettus,,99.79,,,,Unlimited,SBD,F,
Girls,82.33,NS,Allison Garces-Rosalez,Mathis,,133.81,70.31,,,Unlimited,SBD,F,
Girls,90.04,1,Reina Romero,Mathis,87.63,183.7,95.25,170.1,449.06,Unlimited,SBD,F,
Girls,90.04,2,Mia Lopez,Victoria East,89.99,138.35,90.72,145.15,374.21,Unlimited,SBD,F,
Girls,90.04,3,Caitlin Lara,Mathis,89.36,158.76,77.11,124.74,360.61,Unlimited,SBD,F,
Girls,90.04,4,Angel Carranza,Mathis,89.27,149.69,77.11,129.27,356.07,Unlimited,SBD,F,
Girls,90.04,5,Madyson Kramer,Goliad,82.83,113.4,77.11,122.47,312.98,Unlimited,SBD,F,
Girls,90.04,6,Jessica Davila,Ben Bolt-Palito Blanco,89.81,113.4,49.9,90.72,254.01,Unlimited,SBD,F,
Girls,100.02,1,Aerianna Segura,Goliad,98.88,192.78,142.88,176.9,512.56,Unlimited,SBD,F,
Girls,100.02,2,Alyse Gonzales,Victoria West,98.52,181.44,102.06,170.1,453.59,Unlimited,SBD,F,
Girls,100.02,3,Natalie Herrera,Premont,91.63,183.7,72.57,158.76,415.04,Unlimited,SBD,F,
Girls,100.02,4,Olivia Zboral,Victoria East,93.08,158.76,95.25,124.74,378.75,Unlimited,SBD,F,
Girls,100.02,5,Yadhira Eguia,Mathis,97.3,145.15,70.31,124.74,340.19,Unlimited,SBD,F,
Girls,100.02,6,Kaeley Valerio,Corpus Christi West Oso,99.79,74.84,68.04,111.13,254.01,Unlimited,SBD,F,
Girls,117.71,1,Savanna Garza,Victoria West,108.86,158.76,88.45,124.74,371.95,Unlimited,SBD,F,
Girls,117.71,2,Kyra Williams,Victoria West,105.96,136.08,70.31,120.2,326.59,Unlimited,SBD,F,
Girls,117.71,3,Raelynn Ramon,Odem,107.32,97.52,47.63,102.06,247.21,Unlimited,SBD,F,
Girls,117.71,DQ,Brianna Smith,Victoria West,117.39,,,,,Unlimited,SBD,F,
Girls,117.71+,1,Alex Fuentes #3,Corpus Christi Tuloso-Midway,133.36,70.31,43.09,88.45,201.85,Unlimited,SBD,F,
