Division,WeightClassKg,Place,Name,Team,BodyweightKg,Best3SquatKg,Best3BenchKg,Best3DeadliftKg,TotalKg,Equipment,Event,Sex
Boys,51.71,1,Ethan Hoops,Eustace,50.8,99.79,58.97,92.99,251.74,Single-ply,SBD,M
Boys,55.79,1,Jose Rodriguez #2,Athens,53.98,145.15,97.52,156.49,399.16,Single-ply,SBD,M
Boys,55.79,2,Ricardo Rodriguez,Athens,54.88,99.79,79.38,133.81,312.98,Single-ply,SBD,M
Boys,55.79,3,Zack Thompson,Big Sandy Harmony,55.79,97.52,68.04,124.74,290.3,Single-ply,SBD,M
Boys,55.79,4,David Blackwell,Nacogdoches,54.88,120.2,49.9,108.86,278.96,Single-ply,SBD,M
Boys,59.87,1,Trey Russel,Eustace,58.06,138.35,88.45,158.76,385.55,Single-ply,SBD,M
Boys,59.87,2,Ja'Vontay Williams,Nacogdoches,58.97,145.15,65.77,163.29,374.21,Single-ply,SBD,M
Boys,59.87,3,Justice Taylor,Brownsboro,59.87,108.86,83.91,113.4,306.17,Single-ply,SBD,M
Boys,59.87,4,Austin Taliaferro,Gladewater Sabine,58.97,111.13,63.5,124.74,299.37,Single-ply,SBD,M
Boys,59.87,5,Samuel Odom,Brownsboro,59.6,120.2,65.77,113.4,299.37,Single-ply,SBD,M
Boys,59.87,6,White Cody,Brownsboro,58.97,113.4,63.5,111.13,288.03,Single-ply,SBD,M
Boys,67.13,1,Bob Dickerson,Huntington,63.5,158.76,86.18,190.51,435.45,Single-ply,SBD,M
Boys,67.13,2,Brent Mason,Brownsboro,65.09,172.37,70.31,163.29,405.97,Single-ply,SBD,M
Boys,67.13,3,Zach Muniz,Van,61.23,145.15,79.38,147.42,371.95,Single-ply,SBD,M
Boys,67.13,4,Preston Bozeman,Huntington,67.13,136.08,79.38,151.95,367.41,Single-ply,SBD,M
Boys,67.13,5,Jaden Whitely,Nacogdoches,62.6,136.08,79.38,147.42,362.87,Single-ply,SBD,M
Boys,67.13,6,Andrew Means,Big Sandy Harmony,63.96,140.61,81.65,133.81,356.07,Single-ply,SBD,M
Boys,67.13,7,Brennan Burnett,Huntington,65.32,111.13,79.38,161.03,351.53,Single-ply,SBD,M
Boys,67.13,8,Dakota Johnson #4,Brownsboro,66.68,136.08,68.04,120.2,324.32,Single-ply,SBD,M
Boys,67.13,9,Jorge Urteaga,Eustace,61.23,124.74,77.11,117.93,319.78,Single-ply,SBD,M
Boys,67.13,10,Justin Griffin #3,Eustace,63.96,127.01,65.77,127.01,319.78,Single-ply,SBD,M
Boys,67.13,11,Osbablo Juarez,Athens,67.13,108.86,70.31,124.74,303.91,Single-ply,SBD,M
Boys,74.84,1,Tino Elias,Mineola,68.95,195.04,90.72,199.58,485.34,Single-ply,SBD,M
Boys,74.84,2,Dyran McDuff,Tyler,70.76,176.9,102.06,181.44,460.4,Single-ply,SBD,M
Boys,74.84,3,Tanner Evett,Huntington,72.12,158.76,113.4,183.7,455.86,Single-ply,SBD,M
Boys,74.84,4,Chris Davis,Brownsboro,68.49,154.22,104.33,163.29,421.84,Single-ply,SBD,M
Boys,74.84,5,Tony Sanchez,Van,69.4,158.76,90.72,161.03,410.5,Single-ply,SBD,M
Boys,74.84,6,LaDarius Jordan,Athens,70.31,145.15,104.33,142.88,392.36,Single-ply,SBD,M
Boys,74.84,7,Brandon Jones #9,Nacogdoches,74.39,127.01,95.25,158.76,381.02,Single-ply,SBD,M
Boys,74.84,8,Dalton Dykes,Van,72.57,145.15,92.99,133.81,371.95,Single-ply,SBD,M
Boys,74.84,9,Jacob Lindsey,Big Sandy Harmony,71.67,127.01,79.38,138.35,344.73,Single-ply,SBD,M
Boys,74.84,10,Gavin Kirkhart,Eustace,67.59,122.47,68.04,147.42,337.93,Single-ply,SBD,M
Boys,82.1,1,Austin Musser,Mineola,81.19,226.8,117.93,195.04,539.77,Single-ply,SBD,M
Boys,82.1,2,Tristan Bussell,Brownsboro,76.57,183.7,92.99,179.17,455.86,Single-ply,SBD,M
Boys,82.1,3,Stephen Rice,Huntington,79.83,158.76,104.33,158.76,421.84,Single-ply,SBD,M
Boys,82.1,4,Darryl White,Corsicana,79.38,133.81,97.52,165.56,396.89,Single-ply,SBD,M
Boys,82.1,5,Cody Tomlin,Corsicana,81.19,154.22,72.57,127.01,353.8,Single-ply,SBD,M
Boys,82.1,6,Kolton Turner,Gladewater Sabine,76.66,136.08,77.11,136.08,349.27,Single-ply,SBD,M
Boys,82.1,7,Jose Serrono,Mineola,81.65,120.2,79.38,147.42,347,Single-ply,SBD,M
Boys,89.81,1,Shawn Smith,Nacogdoches,88.45,229.06,127.01,233.6,589.67,Single-ply,SBD,M
Boys,89.81,2,Aaron Chitwood,Brownsboro,83.82,215.46,117.93,213.19,546.58,Single-ply,SBD,M
Boys,89.81,3,Tristan Moore,Brownsboro,88.9,210.92,117.93,199.58,528.44,Single-ply,SBD,M
Boys,89.81,4,Darius Watson,Corsicana,88.45,185.97,92.99,181.44,460.4,Single-ply,SBD,M
Boys,89.81,5,Alberto Martinez,Athens,84.37,163.29,117.93,167.83,449.06,Single-ply,SBD,M
Boys,89.81,6,Branson Davis,Big Sandy Harmony,89.81,156.49,108.86,183.7,449.06,Single-ply,SBD,M
Boys,89.81,7,Grant Stansberry,Gladewater Sabine,89.81,174.63,97.52,174.63,446.79,Single-ply,SBD,M
Boys,89.81,8,Barrett Senycki,Athens,88,140.61,99.79,181.44,421.84,Single-ply,SBD,M
Boys,89.81,9,John Phillips,Big Sandy Harmony,85.28,149.69,102.06,156.49,408.23,Single-ply,SBD,M
Boys,89.81,10,Trevor Pilcher,Big Sandy Harmony,87.54,161.03,102.06,142.88,405.97,Single-ply,SBD,M
Boys,89.81,11,Ryan Mutina,Corsicana,82.55,158.76,92.99,151.95,403.7,Single-ply,SBD,M
Boys,89.81,12,Kj Miller,Tyler,88.9,142.88,88.45,154.22,385.55,Single-ply,SBD,M
Boys,89.81,13,Jared Capps,Huntington,83.01,142.88,83.91,156.49,383.29,Single-ply,SBD,M
Boys,89.81,14,Hector Gonzales,Brownsboro,88.09,158.76,88.45,136.08,383.29,Single-ply,SBD,M
Boys,89.81,15,James Payne,Nacogdoches,84.82,140.61,90.72,147.42,378.75,Single-ply,SBD,M
Boys,89.81,DQ,Lane Harrison,Brownsboro,87.54,185.97,99.79,,,Single-ply,SBD,M
Boys,99.79,1,Aaron De La Garza,Brownsboro,98.88,195.04,131.54,176.9,503.49,Single-ply,SBD,M
Boys,99.79,2,Swaide Houston,Brownsboro,95.98,172.37,102.06,226.8,501.22,Single-ply,SBD,M
Boys,99.79,3,Jassavia Reese,Tyler,92.53,179.17,95.25,190.51,464.93,Single-ply,SBD,M
Boys,99.79,4,Alex Gavin,Nacogdoches,98.88,181.44,90.72,163.29,435.45,Single-ply,SBD,M
Boys,99.79,5,Chris Boyd #2,Big Sandy Harmony,95.71,163.29,104.33,147.42,415.04,Single-ply,SBD,M
Boys,99.79,6,Josh Whitworth,Gladewater Sabine,96.16,90.72,56.7,90.72,238.14,Single-ply,SBD,M
Boys,109.77,1,De'Andre Miller,Tyler,109.77,217.72,145.15,219.99,582.87,Single-ply,SBD,M
Boys,109.77,2,Chase Williams,Mineola,100.7,183.7,138.35,190.51,512.56,Single-ply,SBD,M
Boys,109.77,3,Seth Loftin,Van,107.05,183.7,117.93,199.58,501.22,Single-ply,SBD,M
Boys,109.77,4,Jaylon Reese,Tyler,101.15,183.7,120.2,195.04,498.95,Single-ply,SBD,M
Boys,109.77,5,Josh Hurst,Mineola,109.77,192.78,106.59,199.58,498.95,Single-ply,SBD,M
Boys,109.77,6,Davis Bailes,Corsicana,108.86,188.24,108.86,181.44,478.54,Single-ply,SBD,M
Boys,109.77,7,Tyler Trussell,Athens,104.33,185.97,106.59,183.7,476.27,Single-ply,SBD,M
Boys,109.77,8,Zaylon Williams,Tyler,109.32,185.97,117.93,149.69,453.59,Single-ply,SBD,M
Boys,109.77,9,Jacob Cook,Nacogdoches,104.33,136.08,81.65,136.08,353.8,Single-ply,SBD,M
Boys,109.77,DQ,Clay Boston,Huntington,107.5,181.44,,,,Single-ply,SBD,M
Boys,124.74,1,Brian Gutierrez,Athens,115.21,199.58,138.35,174.63,512.56,Single-ply,SBD,M
Boys,124.74,2,Zach Ramos,Brownsboro,124.74,172.37,129.27,151.95,453.59,Single-ply,SBD,M
Boys,124.74,3,Luke Lindbaugh,Corsicana,122.47,167.83,95.25,183.7,446.79,Single-ply,SBD,M
Boys,124.74,4,Alex Valencia,Corsicana,114.31,170.1,108.86,158.76,437.72,Single-ply,SBD,M
Boys,124.74,5,Wally Baker,Eustace,111.13,167.83,106.59,147.42,421.84,Single-ply,SBD,M
Boys,124.74,6,Daniel Logan,Big Sandy Harmony,113.4,161.03,97.52,149.69,408.23,Single-ply,SBD,M
Boys,124.74,7,Luke Sampley,Huntington,117.93,151.95,79.38,165.56,396.89,Single-ply,SBD,M
Boys,124.74,8,Chad Walker #2,Athens,110.68,140.61,90.72,142.88,374.21,Single-ply,SBD,M
Boys,124.74,9,Julio Campazano,Corsicana,110.68,138.35,92.99,140.61,371.95,Single-ply,SBD,M
Boys,124.74,10,Jonathon Seaton,Corsicana,111.13,117.93,72.57,161.03,351.53,Single-ply,SBD,M
Boys,124.74+,1,Jacob Bragg,Nacogdoches,138.8,242.67,142.88,233.6,619.15,Single-ply,SBD,M
Boys,124.74+,2,Juan Gomez,Brownsboro,127.19,254.01,138.35,215.46,607.81,Single-ply,SBD,M
Boys,124.74+,3,John Arellano,Athens,130.63,244.94,154.22,204.12,603.28,Single-ply,SBD,M
Boys,124.74+,4,Tristen Fritch,Brownsboro,158.44,249.48,149.69,195.04,594.21,Single-ply,SBD,M
Boys,124.74+,5,TraVaughn Moore,Tyler,132.9,226.8,111.13,229.06,566.99,Single-ply,SBD,M
Boys,124.74+,6,Carlos Hernandez #10,Van,126.1,217.72,108.86,190.51,517.1,Single-ply,SBD,M
Boys,124.74+,7,Paul Prox,Athens,127.01,213.19,129.27,158.76,501.22,Single-ply,SBD,M
