Place,Name,Sex,BirthDate,Age,Equipment,Division,BodyweightKg,WeightClassKg,Squat1Kg,Squat2Kg,Squat3Kg,Best3SquatKg,Bench1Kg,Bench2Kg,Bench3Kg,Best3BenchKg,Deadlift1Kg,Deadlift2Kg,Deadlift3Kg,Best3DeadliftKg,TotalKg,Event
1,Alexis Kowalczyk,F,1998-12-07,24,Raw,Open,62.96,67.5,102.06,111.13,-117.93,111.13,54.43,-58.97,58.97,58.97,113.4,124.74,131.54,131.54,301.64,SBD
1,Stephanie Buendia,F,,34,Raw,Open,81.83,82.5,104.33,113.4,124.74,124.74,61.23,-65.77,65.77,65.77,136.08,-145.15,-145.15,136.08,326.59,SBD
1,Ashley Omsberg,F,1986-04-28,36,Raw,Open,55.52,56,95.25,104.33,-113.4,104.33,56.7,61.23,63.5,63.5,142.88,151.95,-158.76,151.95,319.78,SBD
1,Amanda Loescher,F,1984-02-20,39,Raw,Open,74.48,75,156.49,163.29,170.1,170.1,92.99,97.52,-102.06,97.52,163.29,172.37,-181.44,172.37,439.98,SBD
2,Ageela Semple,F,,31,Raw,Open,73.75,75,124.74,129.27,136.08,136.08,63.5,68.04,70.31,70.31,131.54,142.88,147.42,147.42,353.8,SBD
1,Camellia Beiruti,F,,26,Raw,Open,77.38,82.5,149.69,163.29,179.17,179.17,92.99,99.79,-102.06,99.79,185.97,195.04,199.58,199.58,478.54,SBD
1,Bonnie Carlson,F,,50,Raw,Open,90.72,100,-183.7,192.78,195.04,195.04,113.4,-124.74,124.74,124.74,170.1,183.7,190.51,190.51,510.29,SBD
1,Marissa Wilson #1,F,1991-07-29,31,Raw,Open,107.05,110,235.87,247.21,256.28,256.28,124.74,129.27,133.81,133.81,197.31,206.38,210.92,210.92,601.01,SBD
1,Christina Ullman,F,,51,Wraps,M50-54,87.09,90,154.22,-165.56,165.56,165.56,81.65,-86.18,-86.18,81.65,154.22,165.56,170.1,170.1,417.3,SBD
1,Melissa Maisonet,F,,,Wraps,Open,43.27,44,136.08,-142.88,142.88,142.88,72.57,-77.11,,72.57,142.88,151.95,156.49,156.49,371.95,SBD
1,Ashley Condray,F,1988-08-04,34,Wraps,Open,63.78,67.5,158.76,167.83,174.63,174.63,77.11,81.65,-86.18,81.65,181.44,185.97,-192.78,185.97,442.25,SBD
2,Shayla Urkoski,F,,37,Wraps,Open,66.77,67.5,127.01,136.08,-142.88,136.08,70.31,72.57,-74.84,72.57,158.76,165.56,-167.83,165.56,374.21,SBD
DQ,Sarah Evans,F,1994-09-10,28,Wraps,Open,66.77,67.5,149.69,-158.76,-163.29,149.69,92.99,-95.25,-95.25,92.99,-161.03,-161.03,,,,SBD
1,Inna Zubyk,F,1999-10-10,23,Wraps,Open,73.94,75,174.63,183.7,192.78,192.78,81.65,86.18,-90.72,86.18,183.7,197.31,206.38,206.38,485.34,SBD
1,Christina Hassink,F,1984-08-29,38,Wraps,Open,79.74,82.5,97.52,102.06,115.67,115.67,70.31,74.84,-83.91,74.84,108.86,124.74,136.08,136.08,326.59,SBD
1,Christina Ullman,F,,51,Wraps,Open,87.09,90,154.22,-165.56,165.56,165.56,81.65,-86.18,-86.18,81.65,154.22,165.56,170.1,170.1,417.3,SBD
1,Sarah Vance #1,F,,30,Wraps,Open,113.04,110+,195.04,-208.65,-208.65,195.04,111.13,117.93,124.74,124.74,181.44,188.24,192.78,192.78,512.56,SBD
1,Courtney Delaney,F,,17,Wraps,T16-17,54.7,56,97.52,102.06,106.59,106.59,43.09,-45.36,45.36,45.36,102.06,106.59,108.86,108.86,260.82,SBD
1,Lacey Pettibone,F,1989-12-05,33,Multi-ply,Open,51.44,52,158.76,-172.37,176.9,176.9,90.72,-99.79,-104.33,90.72,136.08,-149.69,-149.69,136.08,403.7,SBD
1,April Hamon,F,1983-03-11,39,Multi-ply,Open,55.34,56,142.88,147.42,151.95,151.95,81.65,-86.18,-86.18,81.65,147.42,154.22,-161.03,154.22,387.82,SBD
DQ,Heather Lynn,F,1984-04-10,38,Multi-ply,S35-39,89.9,90,-215.46,215.46,231.33,231.33,111.13,-120.2,-124.74,111.13,-195.04,-195.04,-195.04,,,SBD
1,Natalie Bloom,F,2003-04-07,19,Multi-ply,T18-19,74.03,75,204.12,217.72,231.33,231.33,106.59,115.67,122.47,122.47,165.56,183.7,190.51,190.51,544.31,SBD
1,Denise Marais,F,1963-11-23,59,Unlimited,M55-59,66.04,67.5,174.63,192.78,201.85,201.85,-138.35,138.35,-161.03,138.35,-142.88,142.88,158.76,158.76,498.95,SBD
1,Ryan Buckner,F,2005-04-15,17,Unlimited,T16-17,48.26,52,133.81,140.61,-145.15,140.61,-92.99,92.99,102.06,102.06,124.74,138.35,-142.88,138.35,381.02,SBD
1,Tyler Storck,M,,23,Raw,J20-23,88.72,90,240.4,260.82,272.16,272.16,136.08,149.69,-158.76,149.69,272.16,-288.03,-288.03,272.16,694,SBD
1,Erik Balogh,M,,51,Wraps,M50-54,120.75,125,206.38,224.53,231.33,231.33,185.97,-188.24,-188.24,185.97,206.38,219.99,-226.8,219.99,637.3,SBD
1,Parker Blackwell,M,1990-06-26,32,Raw,Open,57.79,60,113.4,127.01,138.35,138.35,90.72,-97.52,-97.52,90.72,142.88,163.29,174.63,174.63,403.7,SBD
1,Caleb Calhoun,M,2001-07-30,21,Raw,Open,79.83,82.5,179.17,185.97,192.78,192.78,127.01,133.81,138.35,138.35,199.58,-213.19,213.19,213.19,544.31,SBD
2,George Shelby,M,1980-10-30,42,Raw,Open,81.19,82.5,147.42,158.76,172.37,172.37,99.79,106.59,108.86,108.86,142.88,149.69,163.29,163.29,444.52,SBD
1,Tyler Storck,M,,23,Raw,Open,88.72,90,240.4,260.82,272.16,272.16,136.08,149.69,-158.76,149.69,272.16,-288.03,-288.03,272.16,694,SBD
1,Jose Cisneros,M,,26,Raw,Open,99.43,100,219.99,231.33,-238.14,231.33,165.56,-174.63,-174.63,165.56,219.99,238.14,251.74,251.74,648.64,SBD
1,Nick Forte,M,1993-07-18,29,Raw,Open,120.93,125,324.32,344.73,351.53,351.53,229.06,240.4,244.94,244.94,344.73,356.07,369.68,369.68,966.15,SBD
2,David Stensland,M,,38,Raw,Open,111.22,125,283.5,294.84,-306.17,294.84,163.29,-174.63,174.63,174.63,281.23,294.84,-306.17,294.84,764.3,SBD
3,Brandon Price #1,M,,35,Raw,Open,123.47,125,251.74,265.35,-272.16,265.35,156.49,170.1,-174.63,170.1,-265.35,265.35,290.3,290.3,725.75,SBD
4,Erik Balogh,M,,51,Wraps,Open,120.75,125,206.38,224.53,231.33,231.33,185.97,-188.24,-188.24,185.97,206.38,219.99,-226.8,219.99,637.3,SBD
1,Damian Solis,M,,36,Raw,Open,137.98,140,-272.16,272.16,294.84,294.84,158.76,170.1,181.44,181.44,283.5,-306.17,306.17,306.17,782.45,SBD
1,Stephen Whitmer,M,1990-10-16,32,Raw,Open,199.4,140+,292.57,317.51,331.12,331.12,195.04,215.46,-226.8,215.46,265.35,285.76,294.84,294.84,841.41,SBD
2,Devin Lawrimore,M,,39,Raw,Open,146.33,140+,176.9,190.51,204.12,204.12,88.45,97.52,-106.59,97.52,158.76,176.9,-195.04,176.9,478.54,SBD
1,Devin Lawrimore,M,,39,Raw,S35-39,146.33,140+,176.9,190.51,204.12,204.12,88.45,97.52,-106.59,97.52,158.76,176.9,-195.04,176.9,478.54,SBD
1,Gabe Barrows,M,,15,Raw,Teen,89.45,90,145.15,154.22,-158.76,154.22,102.06,108.86,113.4,113.4,170.1,183.7,188.24,188.24,455.86,SBD
1,Percy Colvin,M,1979-06-16,43,Wraps,M40-44,112.72,125,-319.78,319.78,-340.19,319.78,206.38,226.8,-238.14,226.8,272.16,290.3,-301.64,290.3,836.88,SBD
1,Brian Hunt,M,,55,Wraps,M55-59,74.21,75,-158.76,158.76,165.56,165.56,106.59,111.13,-115.67,111.13,174.63,181.44,-190.51,181.44,458.13,SBD
1,Lawrence Marquez,M,,31,Wraps,Open,74.93,75,215.46,231.33,-247.21,231.33,122.47,129.27,136.08,136.08,229.06,247.21,258.55,258.55,625.96,SBD
1,Jonathan Harder,M,1978-09-28,44,Wraps,Open,80.83,82.5,299.37,317.51,-324.32,317.51,199.58,217.72,-222.26,217.72,290.3,-308.44,-308.44,290.3,825.54,SBD
2,Brian Phillips,M,,39,Wraps,Open,81.37,82.5,288.03,-303.91,303.91,303.91,181.44,188.24,-192.78,188.24,-242.67,242.67,-258.55,242.67,734.82,SBD
3,Will Green,M,1994-07-16,28,Wraps,Open,81.47,82.5,240.4,258.55,278.96,278.96,145.15,154.22,167.83,167.83,249.48,265.35,278.96,278.96,725.75,SBD
1,Patrick Thompson,M,1991-12-26,31,Wraps,Open,88.9,90,267.62,283.5,292.57,292.57,156.49,167.83,-170.1,167.83,272.16,281.23,-288.03,281.23,741.62,SBD
2,Justin Grygas,M,1983-09-13,39,Wraps,Open,89.27,90,260.82,274.42,278.96,278.96,161.03,170.1,172.37,172.37,274.42,-281.23,,274.42,725.75,SBD
3,Carlos Cadenas Borraz,M,,24,Wraps,Open,89.36,90,-240.4,240.4,-256.28,240.4,129.27,142.88,-154.22,142.88,226.8,-240.4,240.4,240.4,623.69,SBD
1,Antonio Carter,M,1988-12-15,34,Wraps,Open,99.52,100,324.32,342.46,,342.46,215.46,226.8,,226.8,324.32,337.93,-344.73,337.93,907.18,SBD
2,Russell Yankee,M,1985-08-26,37,Wraps,Open,99.7,100,-301.64,-322.05,324.32,324.32,192.78,206.38,-219.99,206.38,294.84,322.05,-328.85,322.05,852.75,SBD
3,Billy Backrath,M,1992-10-22,30,Wraps,Open,95.62,100,294.84,310.71,324.32,324.32,170.1,-181.44,181.44,181.44,306.17,-324.32,-324.32,306.17,811.93,SBD
4,Cody Jasper,M,1990-06-21,32,Wraps,Open,99.43,100,283.5,297.1,-317.51,297.1,185.97,197.31,-201.85,197.31,278.96,-301.64,301.64,301.64,796.05,SBD
5,Jon Sodawasser,M,1993-06-14,29,Wraps,Open,99.06,100,285.76,308.44,317.51,317.51,179.17,192.78,-197.31,192.78,281.23,-306.17,-306.17,281.23,791.52,SBD
6,François Gagné,M,1988-06-20,34,Wraps,Open,99.79,100,297.1,,,297.1,183.7,192.78,199.58,199.58,265.35,-285.76,,265.35,762.04,SBD
7,Ian Walker #4,M,,35,Wraps,Open,95.07,100,197.31,204.12,208.65,208.65,-140.61,140.61,-142.88,140.61,260.82,-274.42,-274.42,260.82,610.08,SBD
1,Ernie Lilliebridge,M,1987-12-13,35,Wraps,Open,109.5,110,344.73,367.41,-390.09,367.41,183.7,192.78,201.85,201.85,319.78,344.73,369.68,369.68,938.94,SBD
1,Austin Patkos,M,1994-09-19,28,Wraps,Open,115.67,125,285.76,315.25,-331.12,315.25,206.38,219.99,229.06,229.06,331.12,351.53,,351.53,895.84,SBD
2,James West #1,M,1988-10-18,34,Wraps,Open,122.02,125,-272.16,272.16,-290.3,272.16,188.24,201.85,210.92,210.92,306.17,-324.32,-324.32,306.17,789.25,SBD
DQ,Roy Mubiru,M,,45,Wraps,Open,111.49,125,183.7,-185.97,188.24,188.24,-136.08,-138.35,-140.61,,,,,,,SBD
1,Eugene Bazemore,M,,30,Wraps,Open,136.17,140,292.57,-322.05,-322.05,292.57,226.8,240.4,-247.21,240.4,317.51,347,-362.87,347,879.97,SBD
2,William Greley,M,1988-06-12,34,Wraps,Open,128,140,283.5,306.17,319.78,319.78,170.1,181.44,188.24,188.24,317.51,344.73,-353.8,344.73,852.75,SBD
1,William Lussier,M,,16,Wraps,T16-17,79.38,82.5,140.61,156.49,165.56,165.56,90.72,97.52,99.79,99.79,185.97,197.31,206.38,206.38,471.74,SBD
DQ,Adam Bell #1,M,1981-01-05,42,Single-ply,M40-44,106.5,110,292.57,-317.51,,292.57,-249.48,-249.48,-249.48,,,,,,,SBD
1,Larry Hoover,M,1970-04-30,52,Single-ply,M50-54,98.07,100,249.48,272.16,297.1,297.1,124.74,181.44,,181.44,226.8,247.21,,247.21,725.75,SBD
1,Paul Tyler,M,1991-03-14,31,Multi-ply,Open,103.78,110,353.8,-374.21,-374.21,353.8,208.65,226.8,,226.8,272.16,292.57,-299.37,292.57,873.17,SBD
1,Ben Russo,M,1999-08-12,23,Unlimited,J20-23,96.07,100,342.46,362.87,376.48,376.48,294.84,-317.51,-317.51,294.84,290.3,308.44,-326.59,308.44,979.76,SBD
1,James Matta,M,1976-02-04,47,Unlimited,M45-49,105.87,110,290.3,-308.44,308.44,308.44,283.5,301.64,322.05,322.05,217.72,-226.8,226.8,226.8,857.29,SBD
1,Andrew Bochenek,M,1970-09-11,52,Unlimited,M50-54,105.87,110,294.84,310.71,322.05,322.05,226.8,-249.48,249.48,249.48,226.8,-244.94,244.94,244.94,816.47,SBD
1,Larry York,M,1970-11-21,52,Unlimited,M50-54,123.2,125,242.67,260.82,278.96,278.96,229.06,278.96,-303.91,278.96,183.7,206.38,215.46,215.46,773.37,SBD
1,Zach Sullivan,M,1994-07-16,28,Unlimited,Open,92.8,100,299.37,-328.85,328.85,328.85,265.35,-278.96,,265.35,278.96,299.37,-317.51,299.37,893.58,SBD
1,John Gaglione,M,,35,Unlimited,Open,109.23,110,356.07,374.21,-387.82,374.21,254.01,272.16,-281.23,272.16,265.35,288.03,306.17,306.17,952.54,SBD
1,Trinton Golden,M,,,Unlimited,Open,119.48,125,385.55,-453.59,453.59,453.59,385.55,-430.91,-430.91,385.55,306.17,328.85,-333.39,328.85,1168,SBD
DQ,Nick Myatt,M,1983-05-07,39,Unlimited,Open,139.89,140,-419.57,-419.57,-419.57,,,,,,,,,,,SBD
1,Matt Hodge,M,1988-01-20,35,Unlimited,Open,153.13,140+,385.55,-426.38,-426.38,385.55,374.21,408.23,,408.23,328.85,-362.87,-362.87,328.85,1122.64,SBD
1,Dennis Rolon,M,,57,Raw,M55-59,106.23,110,,,,,129.27,142.88,151.95,151.95,272.16,285.76,297.1,297.1,449.06,BD
1,Adan Aldarondo,M,,27,Raw,Open,66.77,67.5,,,,,124.74,127.01,-131.54,127.01,192.78,204.12,-210.92,204.12,331.12,BD
1,Alexander Ersing,M,,36,Raw,Open,74.84,75,,,,,-136.08,142.88,147.42,147.42,226.8,-238.14,-238.14,226.8,374.21,BD
1,Robert Ricci,M,,30,Raw,Open,123.92,125,,,,,151.95,158.76,165.56,165.56,185.97,199.58,208.65,208.65,374.21,BD
2,Anthony Piccione,M,1982-06-01,40,Raw,Open,121.11,125,,,,,113.4,-120.2,-120.2,113.4,249.48,-272.16,,249.48,362.87,BD
1,Ismayil Guliyev,M,,44,Raw,M40-44,99.52,100,,,,,-165.56,165.56,174.63,174.63,,,,,174.63,B
1,Gyunduz Ismailov,M,,50,Raw,M50-54,77.75,82.5,,,,,210.92,-215.46,-219.99,210.92,,,,,210.92,B
1,Parviz Odinaev,M,,40,Raw,Open,85,90,,,,,183.7,195.04,206.38,206.38,,,,,206.38,B
1,Jeff Johnson,M,1984-02-28,39,Raw,Open,158.85,140+,,,,,163.29,-167.83,-170.1,163.29,,,,,163.29,B
1,Al Tanner,M,1966-10-14,56,Multi-ply,M55-59,142.43,140+,,,,,199.58,210.92,-226.8,210.92,,,,,210.92,B
1,Zachary Jones #2,M,1981-10-24,41,Multi-ply,Open,89.9,90,,,,,179.17,-201.85,-201.85,179.17,,,,,179.17,B
1,Travis Williams,M,1974-07-26,48,Unlimited,M45-49,97.16,100,,,,,-265.35,274.42,-285.76,274.42,,,,,274.42,B
